{
    "app-id": "org.curlew.curlew",
    "runtime": "org.gnome.Platform//3.30",
    "sdk": "org.gnome.Sdk",
    "command": "curlew",
    "finish-args": [
        "--share=ipc",
        "--socket=x11",
        "--socket=wayland",
        "--filesystem=home",
        "--talk-name=ca.desrt.dconf",
        "--filesystem=xdg-run/dconf",
        "--filesystem=~/.config/dconf:ro",
        "--env=DCONF_USER_CONFIG_DIR=.config/dconf"
    ],
    "modules": [
        {
          "name": "imagemagick",
          "config-opts": [
            "--enable-static=no",
            "--disable-docs",
            "--disable-deprecated",
            "--without-autotrace",
            "--without-bzlib",
            "--without-djvu",
            "--without-dps",
            "--without-fftw",
            "--without-fontconfig",
            "--without-fpx",
            "--without-freetype",
            "--without-gvc",
            "--without-jbig",
            "--without-jpeg",
            "--without-lcms",
            "--without-lzma",
            "--without-magick-plus-plus",
            "--without-openexr",
            "--without-openjp2",
            "--without-pango",
            "--without-raqm",
            "--without-tiff",
            "--without-webp",
            "--without-wmf",
            "--without-x",
            "--without-xml",
            "--without-zlib"
          ],
          "sources": [
            {
              "type": "archive",
              "url": "https://github.com/ImageMagick/ImageMagick/archive/7.0.7-39.tar.gz",
              "sha256": "e7c1b19923bb97ed456c78b63b3259b809ebc8e3967c6d086450370c67eedf06"
            }
          ]
	},
        {
            "name": "ffmpeg",
            "config-opts": [
                "--enable-shared",
                "--disable-static",
                "--disable-ffserver",
                "--disable-ffplay",
                "--disable-ffprobe",
                "--disable-doc",
                "--disable-network"
            ],
            "sources": [
                {
                  "type": "archive",
                  "url": "https://www.ffmpeg.org/releases/ffmpeg-3.4.1.tar.xz",
                  "sha256": "5a77278a63741efa74e26bf197b9bb09ac6381b9757391b922407210f0f991c0"
                }
            ]
        },
        {
         "name": "intltool",
         "sources": [
                {
                  "type": "archive",
                  "url": "https://launchpad.net/intltool/trunk/0.51.0/+download/intltool-0.51.0.tar.gz",
                  "sha256": "67c74d94196b153b774ab9f89b2fa6c6ba79352407037c8c14d5aeb334e959cd"
                }
           ]
        },
        {
            "name": "curlew",
            "buildsystem" : "simple",
            "build-commands" : [
		"python3 setup.py install --prefix=/app",
		"install -Dm644 org.curlew.curlew128x128.png /app/share/icons/hicolor/128x128/apps/org.curlew.curlew.png",
        	"install -Dm644 org.curlew.curlew64x64.png /app/share/icons/hicolor/64x64/apps/org.curlew.curlew.png",
        	"install -Dm644 org.curlew.curlew.desktop /app/share/applications/org.curlew.curlew.desktop",
        	"install -Dm644 org.curlew.curlew.appdata.xml /app/share/appdata/org.curlew.curlew.appdata.xml"
	    ],
            "sources": [
                {
		  "type" : "file",
		  "path" : "org.curlew.curlew.desktop"
		},
		{
		  "type" : "file",
		  "path" : "org.curlew.curlew.appdata.xml"
		},
		{
		  "type" : "file",
		  "path" : "org.curlew.curlew64x64.png"
		},
		{
		  "type" : "file",
		  "path" : "org.curlew.curlew128x128.png"
		},
                {
                   "type":"archive",
                   "url":"https://sourceforge.net/projects/curlew/files/curlew-0.2.5/curlew-0.2.5.tar.gz",
                   "sha256":"8f645bc3a4897ac61eaec5be19c16b515d164552554ac0791a60731be1ea22a9"
                }
            ]
        }
    ]
}